@startuml
title parent项目持续集成
participant test
participant deploy

test -> deploy: maven-test\n项目测试和验证
deploy ->]: deploy-to-maven\n项目发布至远程仓库\n(除master分支)
deploy ->]: deploy-to-maven-notify\n项目发布至远程仓库\n成功后，钉钉通知(master分支)

@enduml